mailto:contacto@entrerios.tur.ar,
mailto:casadeentrerios@entrerios.gov.ar,
http://entrerios.tur.ar/#page,
http://entrerios.tur.ar/#accesosrapidos,
http://entrerios.tur.ar/#,
http://entrerios.tur.ar//playa-y-naturaleza,
http://entrerios.tur.ar//carnaval,
http://entrerios.tur.ar//termas,
http://entrerios.tur.ar//turismo-aventura,
http://entrerios.tur.ar//avistaje-de-aves,
http://entrerios.tur.ar//turismo-rural,
http://entrerios.tur.ar//guias-de-pesca,
http://entrerios.tur.ar//golf,
http://entrerios.tur.ar//historia-y-cultura,
http://entrerios.tur.ar//eventos-y-convenciones,
http://entrerios.tur.ar/#tabs-1,
http://entrerios.tur.ar/#tabs-2,
http://entrerios.tur.ar/#tabs-3,
http://entrerios.tur.ar/#tabs-4,
http://entrerios.tur.ar//agenda,
http://entrerios.tur.ar//agenda/fiestas-populares-entrerrianas-2019.htm,
http://entrerios.tur.ar//agenda/8220amor-entre-rios-el-amor-vence8221-concurso-fotografico.htm,
http://entrerios.tur.ar//agenda/9-y-10-de-noviembre-fiesta-de-las-costumbres-argentinas-pueblo-belgrano.htm,
http://entrerios.tur.ar//promociones/beneficios-ficer.htm,
http://entrerios.tur.ar//promociones/2-festival-internacional-de-cine-de-entre-rios-ficer.htm,
http://entrerios.tur.ar/#,
http://entrerios.tur.ar/#,
http://entrerios.tur.ar/#imagen1,
http://entrerios.tur.ar/#imagen2,
http://entrerios.tur.ar/#imagen3,
http://entrerios.tur.ar/#imagen4,
http://entrerios.tur.ar/#imagen5,
http://entrerios.tur.ar/#imagen6,
http://entrerios.tur.ar//novedades/entre-rios-continua-enriqueciendo-su-oferta-de-turismo-accesible.htm,
http://entrerios.tur.ar//novedades/entre-rios-continua-enriqueciendo-su-oferta-de-turismo-accesible.htm,
http://entrerios.tur.ar//novedades/entre-rios-sera-sede-de-la-feria-de-termalismo-mas-importante-del-mundo.htm,
http://entrerios.tur.ar//novedades/entre-rios-sera-sede-de-la-feria-de-termalismo-mas-importante-del-mundo.htm,
http://entrerios.tur.ar//novedades/se-entregaron-distinciones-a-organizaciones-que-participaron-en-las-directrices-de-calidad-en-turismo.htm,
http://entrerios.tur.ar//novedades/se-entregaron-distinciones-a-organizaciones-que-participaron-en-las-directrices-de-calidad-en-turismo.htm,
http://entrerios.tur.ar//novedades/buen-desarrollo-del-turismo-en-la-temporada-de-vacaciones-de-invierno.htm,
http://entrerios.tur.ar//novedades/buen-desarrollo-del-turismo-en-la-temporada-de-vacaciones-de-invierno.htm,
http://entrerios.tur.ar//novedades/a-traves-de-cultura-encendida-30000-personas-disfrutaron-de-actividades-culturales-en-toda-la-provincia.htm,
http://entrerios.tur.ar//novedades/a-traves-de-cultura-encendida-30000-personas-disfrutaron-de-actividades-culturales-en-toda-la-provincia.htm,
http://entrerios.tur.ar//novedades/diversidad-de-propuestas-culturales-gratuitas-para-las-vacaciones-de-invierno-en-el-fogon-usina.htm,
http://entrerios.tur.ar//novedades/diversidad-de-propuestas-culturales-gratuitas-para-las-vacaciones-de-invierno-en-el-fogon-usina.htm,
http://entrerios.tur.ar//playa-y-naturaleza,
http://entrerios.tur.ar//carnaval,
http://entrerios.tur.ar//termas,
http://entrerios.tur.ar//turismo-aventura,
http://entrerios.tur.ar//avistaje-de-aves,
http://entrerios.tur.ar//turismo-rural,
http://entrerios.tur.ar//guias-de-pesca,
http://entrerios.tur.ar//golf,
http://entrerios.tur.ar//historia-y-cultura,
http://entrerios.tur.ar//eventos-y-convenciones,
http://entrerios.tur.ar//alojamiento,
http://entrerios.tur.ar//actividades,
http://entrerios.tur.ar//gastronomia,
http://entrerios.tur.ar//destinos,
http://entrerios.tur.ar//agenda,
http://entrerios.tur.ar//itinerarios,
http://entrerios.tur.ar//institucional/info-util.php,
http://entrerios.tur.ar//promociones,
http://entrerios.tur.ar//institucional,
http://entrerios.tur.ar//novedades,
http://entrerios.tur.ar//institucional/tramites.php,
http://entrerios.tur.ar//institucional/mapa.php,
http://entrerios.tur.ar//institucional/contacto.php,
http://entrerios.tur.ar//institucional/contacto.php,
mailto:contacto@entrerios.tur.ar,
http://entrerios.tur.ar/mailto:contacto@entrerios.tur.ar,
mailto:casadeentrerios@entrerios.gov.ar,
http://entrerios.tur.ar/mailto:casadeentrerios@entrerios.gov.ar,
http://entrerios.tur.ar/#top,
